<svg xmlns="http://www.w3.org/2000/svg" xmlns:xlink="http://www.w3.org/1999/xlink" viewBox="0 0 27.123 30.72">
  <defs>
    <style>
      .cls-1 {
        fill: #c3ac92;
      }

      .cls-2 {
        fill: #fff;
      }

      .cls-3 {
        filter: url(#Path_31);
      }
    </style>
    <filter id="Path_31" x="0" y="0" width="27.123" height="30.72" filterUnits="userSpaceOnUse">
      <feOffset dy="3" input="SourceAlpha"/>
      <feGaussianBlur result="blur"/>
      <feFlood flood-opacity="0.161"/>
      <feComposite operator="in" in2="blur"/>
      <feComposite in="SourceGraphic"/>
    </filter>
  </defs>
  <g id="Group_523" data-name="Group 523" transform="translate(-21 -590)">
    <path id="Path_162" data-name="Path 162" class="cls-1" d="M3138.614,1533.3h19.356v5.621l-2.194,6.014-3.456,2.437-5.068.63-3.659-.63-2.322-1.68-1.6-2.805-1.055-3.965-.588-3.69Z" transform="translate(-3115 -931)"/>
    <g class="cls-3" transform="matrix(1, 0, 0, 1, 21, 590)">
      <path id="Path_31-2" data-name="Path 31" class="cls-2" d="M12.36,4.267a2.11,2.11,0,0,0,0-2.965.754.754,0,0,1,0-1.092.782.782,0,0,1,1.092,0,3.617,3.617,0,0,1,0,5.15,2.11,2.11,0,0,0,0,2.965.754.754,0,0,1,0,1.092.782.782,0,0,1-1.092,0A3.674,3.674,0,0,1,12.36,4.267Zm4.682,1.186a2.845,2.845,0,0,0,0,4,.772.772,0,0,0,1.092-1.092,1.244,1.244,0,0,1,0-1.779h0a2.845,2.845,0,0,0,0-4h0a.754.754,0,0,0-1.092,0,.782.782,0,0,0,0,1.092,1.243,1.243,0,0,1,0,1.779Zm-9.363,4a.754.754,0,0,0,1.092,0,.782.782,0,0,0,0-1.092,1.244,1.244,0,0,1,0-1.779h0a2.845,2.845,0,0,0,0-4,.754.754,0,0,0-1.092,0,.782.782,0,0,0,0,1.092h0a1.244,1.244,0,0,1,0,1.779h0a2.845,2.845,0,0,0,0,4ZM0,26.927a.773.773,0,0,1,.78-.78H6.242A8.687,8.687,0,0,1,2.715,21.59c-.062-.156-.094-.312-.156-.468A34.55,34.55,0,0,1,1.248,13.6a2.16,2.16,0,0,1,.593-1.592A2.127,2.127,0,0,1,3.4,11.321H20.943a2.127,2.127,0,0,1,1.561.687,2.017,2.017,0,0,1,.562,1.592c-.031.531-.094,1.092-.156,1.654h.468A3.756,3.756,0,0,1,27.123,19,3.017,3.017,0,0,1,27,19.9a3.74,3.74,0,0,1-3.621,2.84H21.13a9,9,0,0,1-3.09,3.4h5.337a.78.78,0,1,1,0,1.561H.78a.814.814,0,0,1-.78-.78Zm21.755-5.774h1.654a2.186,2.186,0,0,0,.531-4.307,2.749,2.749,0,0,0-.531-.062h-.687a33.035,33.035,0,0,1-.936,4.307Zm-10.487,4.9h1.81a7.5,7.5,0,0,0,7.21-5.306l.031-.062a34.93,34.93,0,0,0,1.248-7.179.593.593,0,0,0-.156-.406.616.616,0,0,0-.437-.187H3.4a.616.616,0,0,0-.437.187.479.479,0,0,0-.156.406,34.93,34.93,0,0,0,1.248,7.179,2.9,2.9,0,0,0,.125.406A7.369,7.369,0,0,0,11.267,26.053Z" transform="translate(0 0.01)"/>
    </g>
  </g>
</svg>
