<?xml version="1.0" encoding="utf-8"?>
<!-- Generator: Adobe Illustrator 22.1.0, SVG Export Plug-In . SVG Version: 6.00 Build 0)  -->
<svg version="1.1" id="Layer_1" xmlns="http://www.w3.org/2000/svg" xmlns:xlink="http://www.w3.org/1999/xlink" x="0px" y="0px"
	 viewBox="0 0 24 24" style="enable-background:new 0 0 24 24;" xml:space="preserve">
<style type="text/css">
	.st0{fill:none;}
	.st1{fill:#FFFFFF;}
</style>
<path class="st0" d="M0,0h24v24H0V0z"/>
<g id="Group_40" transform="translate(-30 -460.556)">
	<path id="Path_3" class="st1" d="M50.1,461.3H33.9c-0.3,0-0.5,0.2-0.5,0.5c0,0.3,0.2,0.5,0.5,0.5h0.3l2,20.3
		c0.1,0.6,0.6,1.1,1.2,1.1h9.1c0.6,0,1.2-0.5,1.2-1.1l2-20.3h0.2c0.3,0,0.5-0.2,0.5-0.5C50.7,461.6,50.4,461.3,50.1,461.3z
		 M46.8,482.5c0,0.1-0.1,0.2-0.2,0.2c0,0,0,0,0,0h-9.1c-0.1,0-0.2-0.1-0.2-0.2c0,0,0,0,0,0l-2-20.1h13.5L46.8,482.5z"/>
</g>
</svg>
