<?xml version="1.0" encoding="utf-8"?>
<!-- Generator: Adobe Illustrator 22.1.0, SVG Export Plug-In . SVG Version: 6.00 Build 0)  -->
<svg version="1.1" id="Layer_1" xmlns="http://www.w3.org/2000/svg" xmlns:xlink="http://www.w3.org/1999/xlink" x="0px" y="0px"
	 viewBox="0 0 24 24" style="enable-background:new 0 0 24 24;" xml:space="preserve">
<style type="text/css">
	.st0{fill:none;}
	.st1{fill:#FFFFFF;}
</style>
<path class="st0" d="M0,0h24v24H0V0z"/>
<g transform="matrix(1, 0, 0, 1, 0, 0)">
	<g id="Union_1-2" transform="translate(4895)">
		<path class="st0" d="M-4892.4,13.8L-4892.4,13.8c-1.4-1.4-2.1-3.2-2.1-5.2c0-4,3.3-7.3,7.3-7.3c1.5,0,2.9,0.5,4.2,1.3
			c1.2-0.8,2.7-1.3,4.2-1.3c4,0,7.3,3.3,7.3,7.3c0,2-0.8,3.8-2.2,5.2h0l-9.4,9.2L-4892.4,13.8z"/>
		<path class="st1" d="M-4883.2,20.7l5.7-5.7l0,0l2.5-2.4c1.1-1.1,1.7-2.5,1.7-4c0-3.1-2.5-5.6-5.6-5.6c-1.2,0-2.3,0.3-3.2,1
			l-0.9,0.7l-0.9-0.7c-0.9-0.7-2.1-1-3.2-1c-3.1,0-5.6,2.5-5.6,5.6c0,1.5,0.6,2.9,1.7,4l2.5,2.4l-0.1,0L-4883.2,20.7 M-4883.2,23
			l-9.2-9.2l0,0c-1.3-1.3-2.2-3.2-2.2-5.2c0-4,3.3-7.3,7.3-7.3c1.5,0,3,0.5,4.2,1.3c1.2-0.8,2.6-1.3,4.2-1.3c4,0,7.3,3.3,7.3,7.3
			c0,2-0.8,3.9-2.2,5.2l0,0L-4883.2,23z"/>
	</g>
</g>
</svg>
