<?xml version="1.0" encoding="utf-8"?>
<!-- Generator: Adobe Illustrator 22.1.0, SVG Export Plug-In . SVG Version: 6.00 Build 0)  -->
<svg version="1.1" id="Layer_1" xmlns="http://www.w3.org/2000/svg" xmlns:xlink="http://www.w3.org/1999/xlink" x="0px" y="0px"
	 viewBox="0 0 24 24" style="enable-background:new 0 0 24 24;" xml:space="preserve">
<style type="text/css">
	.st0{fill:none;}
	.st1{fill:#FFFFFF;}
</style>
<path class="st0" d="M0,0h24v24H0V0z"/>
<g id="Group_39" transform="translate(-0.049 -0.086)">
	<path id="Path_5" class="st1" d="M9.8,23.3c-0.8,0-1.5-0.2-2.2-0.7c-1.3-0.9-4.9-4.5-5.4-8.7c-0.3-2,0.3-4.1,1.7-5.7
		C4,8.2,6.1,6.1,8.5,6.4c0.6,0,1.2,0.2,1.7,0.4c0.5,0.2,1.1,0.2,1.7,0.2c0.6,0.1,1.1,0,1.7-0.2c0.5-0.2,1.1-0.4,1.7-0.4
		c2.4-0.2,4.4,1.8,4.5,1.8c1.4,1.5,2,3.6,1.7,5.7c-0.6,4.2-4.2,7.8-5.4,8.7c-0.6,0.5-1.4,0.7-2.2,0.7l0,0c-0.7,0-1.4-0.2-2-0.5
		C11.2,23.1,10.5,23.3,9.8,23.3z M8,7.3C6.8,7.4,5.5,8,4.7,8.9C3.5,10.3,3,12,3.2,13.8c0.5,3.8,3.9,7.3,5,8c0.5,0.3,1.1,0.5,1.7,0.5
		c0.6,0,1.2-0.2,1.7-0.5c0.1-0.1,0.3-0.1,0.5,0c0.5,0.3,1.1,0.5,1.7,0.5l0,0c0.6,0,1.2-0.2,1.7-0.5c1.1-0.8,4.5-4.2,5-8
		c0.3-1.8-0.3-3.6-1.4-4.9l0,0c0,0-1.7-1.7-3.7-1.6c-0.5,0-1,0.1-1.5,0.3c-0.6,0.3-1.3,0.4-2,0.3c-0.7,0.1-1.4,0-2-0.3
		c-0.5-0.2-1-0.3-1.5-0.3C8.3,7.3,8.2,7.3,8,7.3z"/>
	<path id="Path_6" class="st1" d="M11.8,7.6L11.8,7.6c-0.3,0-0.5-0.3-0.4-0.5C11.7,5,11,2.9,9.5,1.4C9.3,1.3,9.3,1,9.5,0.8
		c0,0,0,0,0,0c0.2-0.2,0.5-0.2,0.7,0c1.6,1.7,2.4,4.1,2.1,6.5C12.3,7.4,12.1,7.6,11.8,7.6z"/>
	<path id="Path_7" class="st1" d="M14.4,6.1c-0.9,0-1.9-0.3-2.7-0.7c-0.1-0.1-0.3-0.2-0.3-0.4c0-0.9,0.3-1.8,1-2.5
		c1.3-1.3,3.5-1.8,6.7-1.3c0.2,0,0.4,0.2,0.4,0.5C19.5,2,18.1,6.1,14.4,6.1z M12.4,4.7c0.6,0.3,1.3,0.4,2,0.5c2.3,0,3.5-2,4-3
		c-2.5-0.3-4.3,0-5.3,1.1C12.7,3.6,12.5,4.1,12.4,4.7z"/>
</g>
</svg>
