<?xml version="1.0" encoding="utf-8"?>
<!-- Generator: Adobe Illustrator 22.1.0, SVG Export Plug-In . SVG Version: 6.00 Build 0)  -->
<svg version="1.1" id="Layer_1" xmlns="http://www.w3.org/2000/svg" xmlns:xlink="http://www.w3.org/1999/xlink" x="0px" y="0px"
	 viewBox="0 0 27.2 32" style="enable-background:new 0 0 27.2 32;" xml:space="preserve">
<style type="text/css">
	.st0{fill:#FFFFFF;}
</style>
<g id="Group_19" transform="translate(-0.05 -0.086)">
	<path id="Path_5" class="st0" d="M10.8,32.1c-1.1,0-2.2-0.3-3.1-0.9C6,29.9,0.9,24.7,0.2,18.9c-0.4-2.9,0.4-5.8,2.3-8
		c0.1-0.1,3-3,6.4-2.7c0.8,0,1.6,0.2,2.4,0.5C12.1,9,12.8,9.1,13.6,9c0.8,0.1,1.6,0,2.3-0.3c0.8-0.3,1.6-0.5,2.4-0.5
		c3.4-0.3,6.3,2.5,6.4,2.6c1.9,2.2,2.8,5.1,2.3,8c-0.8,5.9-5.9,11.1-7.6,12.3c-0.9,0.6-2,1-3.1,0.9l0,0c-1,0-2-0.3-2.9-0.7
		C12.7,31.8,11.8,32.1,10.8,32.1z M8.3,9.5c-1.8,0.1-3.5,0.9-4.8,2.3c-1.7,1.9-2.4,4.4-2,6.9C2.2,24.1,7,29,8.6,30.1
		c0.7,0.5,1.5,0.7,2.3,0.7c0.9,0,1.7-0.3,2.5-0.7c0.2-0.1,0.5-0.1,0.7,0c0.8,0.4,1.6,0.6,2.5,0.7l0,0c0.8,0,1.6-0.3,2.3-0.7
		c1.5-1.1,6.3-6,7.1-11.4c0.4-2.5-0.4-5-2-6.9l0,0c0,0-2.5-2.5-5.3-2.2c-0.7,0-1.4,0.2-2.1,0.5c-0.9,0.4-1.9,0.5-2.9,0.4
		c-1,0.1-2,0-2.9-0.4c-0.7-0.3-1.4-0.4-2.1-0.5C8.6,9.5,8.5,9.5,8.3,9.5z"/>
	<path id="Path_6" class="st0" d="M13.6,10L13.6,10C13.2,9.9,13,9.6,13,9.2c0.4-2.9-0.6-5.9-2.7-8c-0.3-0.2-0.3-0.7,0-0.9
		c0,0,0,0,0,0C10.6,0,11,0,11.3,0.2c2.3,2.4,3.4,5.8,3,9.1C14.3,9.7,14,10,13.6,10z"/>
	<path id="Path_7" class="st0" d="M17.3,7.8c-1.3,0-2.7-0.4-3.9-0.9C13.2,6.7,13,6.5,13,6.3c0-1.3,0.5-2.6,1.4-3.5
		c1.8-1.9,5-2.5,9.5-1.8c0.3,0.1,0.5,0.3,0.5,0.7C24.5,2,22.5,7.8,17.3,7.8z M14.4,5.8c0.9,0.4,1.9,0.6,2.9,0.7
		c3.3,0,4.9-2.9,5.6-4.3c-3.6-0.5-6.1,0.1-7.5,1.5C14.9,4.3,14.5,5,14.4,5.8L14.4,5.8z"/>
</g>
</svg>
