<?xml version="1.0" encoding="utf-8"?>
<!-- Generator: Adobe Illustrator 22.1.0, SVG Export Plug-In . SVG Version: 6.00 Build 0)  -->
<svg version="1.1" id="Layer_1" xmlns="http://www.w3.org/2000/svg" xmlns:xlink="http://www.w3.org/1999/xlink" x="0px" y="0px"
	 viewBox="0 0 26.2 29.5" style="enable-background:new 0 0 26.2 29.5;" xml:space="preserve">
<style type="text/css">
	.st0{fill:#FF0202;}
	.st1{fill:#16B942;}
</style>
<g id="Group_26" transform="translate(-21.51 -292.444)">
	<path id="Path_8" class="st0" d="M34.6,300.8c0,0,5.5-2.1,6.9-1s6.5,3.1,6.2,9.8c-1.8,6-8.1,12.4-8.1,12.4h-9.1
		c0,0-6.6-4.7-8.9-12.4c1.1-6.5,1.9-7.7,5.2-8.8S34.6,300.8,34.6,300.8z"/>
	<path id="Path_9" class="st1" d="M34.6,296.4c0.6-1.2,1.5-3.9,4.2-4s6.2,0,6.2,0s-2.4,5-3.9,5.4S34,297.6,34.6,296.4z"/>
</g>
</svg>
