<?xml version="1.0" encoding="utf-8"?>
<!-- Generator: Adobe Illustrator 22.1.0, SVG Export Plug-In . SVG Version: 6.00 Build 0)  -->
<svg version="1.1" id="Layer_1" xmlns="http://www.w3.org/2000/svg" xmlns:xlink="http://www.w3.org/1999/xlink" x="0px" y="0px"
	 viewBox="0 0 24 24" style="enable-background:new 0 0 24 24;" xml:space="preserve">
<style type="text/css">
	.st0{fill:none;}
	.st1{fill:#FFFFFF;}
</style>
<path class="st0" d="M0,0h24v24H0V0z"/>
<g id="Group_38" transform="translate(-137 -459)">
	<g transform="matrix(1, 0, 0, 1, 137, 459)">
		<path id="Path_32-2" class="st1" d="M6.8,11.2c0-1.4-1.1-2.5-2.4-2.5s-2.5,1.1-2.5,2.4c0,0,0,0.1,0,0.1c0,1.4,1.1,2.5,2.4,2.5
			C5.6,13.7,6.8,12.6,6.8,11.2C6.8,11.2,6.8,11.2,6.8,11.2z"/>
	</g>
	<g transform="matrix(1, 0, 0, 1, 137, 459)">
		<path id="Path_33-2" class="st1" d="M7.8,9.9c0.4-2.7,0.5-5.4,0.2-8.1c0-0.6,0.4-1.1,1-1.1c0.6,0,1,0.4,1.1,0.9
			c0.2,2.7,0.2,5.5-0.2,8.2c2.2,0.2,4.3,1.2,6,2.7c2.7,2.5,4.8,5.6,6.1,9.1c0.3,0.6,0,1.3-0.7,1.6c0,0,0,0,0,0
			c-0.6,0.2-1.3-0.1-1.6-0.7c-1.1-2.7-2.6-5.2-4.6-7.3c-2,3.2-4.7,5.9-7.9,7.9c-0.3,0.2-0.7,0.3-1.1,0.1c0.3-0.1,0.6-0.4,0.8-0.7
			c0.4-1,0.8-2,1.2-3.1c1.4-1.1,2.7-2.4,3.7-3.9c-0.8-0.5-1.8-0.8-2.7-0.9c-0.5,2.6-1.3,5.2-2.4,7.7c-0.2,0.5-0.9,0.7-1.4,0.5
			c-0.5-0.2-0.7-0.8-0.5-1.3c1.1-2.5,1.9-5.1,2.3-7.7L7.8,9.9"/>
	</g>
</g>
</svg>
