<?xml version="1.0" encoding="utf-8"?>
<!-- Generator: Adobe Illustrator 22.1.0, SVG Export Plug-In . SVG Version: 6.00 Build 0)  -->
<svg version="1.1" id="Layer_1" xmlns="http://www.w3.org/2000/svg" xmlns:xlink="http://www.w3.org/1999/xlink" x="0px" y="0px"
	 viewBox="0 0 24.6 31.9" style="enable-background:new 0 0 24.6 31.9;" xml:space="preserve">
<style type="text/css">
	.st0{fill:#0CCDF0;}
	.st1{fill:#FFFFFF;}
</style>
<g id="Group_14" transform="translate(-30 -460.556)">
	<path id="Path_4" class="st0" d="M31.9,460.6h21.6l-3.9,31H35.3L31.9,460.6z"/>
	<path id="Path_3" class="st1" d="M53.8,460.6H30.8c-0.4,0-0.7,0.3-0.8,0.8c0,0.4,0.3,0.7,0.8,0.8h0.5l2.9,28.8
		c0.1,0.9,0.9,1.6,1.8,1.6h13c0.9,0,1.7-0.7,1.8-1.6l2.9-28.8h0.4c0.4,0,0.8-0.3,0.8-0.8C54.6,460.9,54.3,460.6,53.8,460.6z
		 M49.1,490.7c0,0.1-0.1,0.2-0.2,0.3c0,0,0,0,0,0h-13c-0.1,0-0.2-0.1-0.3-0.2c0,0,0,0,0,0l-2.9-28.6h19.2L49.1,490.7z"/>
</g>
</svg>
