<?xml version="1.0" encoding="utf-8"?>
<!-- Generator: Adobe Illustrator 22.1.0, SVG Export Plug-In . SVG Version: 6.00 Build 0)  -->
<svg version="1.1" id="Layer_1" xmlns="http://www.w3.org/2000/svg" xmlns:xlink="http://www.w3.org/1999/xlink" x="0px" y="0px"
	 viewBox="0 0 24 24" style="enable-background:new 0 0 24 24;" xml:space="preserve">
<style type="text/css">
	.st0{fill:none;}
	.st1{fill:#FFFFFF;}
</style>
<path class="st0" d="M0,0h24v24H0V0z"/>
<g id="Group_33" transform="translate(0 -952.4)">
	<g transform="matrix(1, 0, 0, 1, 0, 952.4)">
		<path id="Path_1-2" class="st1" d="M14.5,1.1L5.8,13.5h5.5l-2.2,9.1l9.1-12.7h-5.5L14.5,1.1z"/>
	</g>
</g>
</svg>
