<?xml version="1.0" encoding="utf-8"?>
<!-- Generator: Adobe Illustrator 22.1.0, SVG Export Plug-In . SVG Version: 6.00 Build 0)  -->
<svg version="1.1" id="Layer_1" xmlns="http://www.w3.org/2000/svg" xmlns:xlink="http://www.w3.org/1999/xlink" x="0px" y="0px"
	 viewBox="0 0 24 24" style="enable-background:new 0 0 24 24;" xml:space="preserve">
<style type="text/css">
	.st0{fill:none;}
	.st1{fill:#FFFFFF;}
</style>
<path class="st0" d="M0,0h24v24H0V0z"/>
<g transform="matrix(1, 0, 0, 1, 0, 0)">
	<path id="Path_30-2" class="st1" d="M21.5,2.7l0-0.4l-0.4-0.1C20.6,2.1,20,2.1,19.4,2c-3.6,0-6.6,3-6.6,6.6c0,0.1,0,0.2,0,0.3
		c-0.1,0.2-0.2,0.3-0.4,0.5c0-1.9-0.6-3.7-1.7-5.2C9,1.9,6.3,0.6,3.4,0.6H3.1L2.9,1C2,3.7,2.5,6.7,4.2,9.1c1.5,2,3.8,3.3,6.3,3.6
		c0,0.5,0,1-0.1,1.4c-0.1,0.3-0.2,0.7-0.2,1c0,0,0,0.1,0,0.1c0,0.1,0,0.1,0,0.2c0,0.2-0.1,0.4-0.1,0.6c-0.4-0.6-0.9-1-1.5-1.3
		c-0.6-0.3-1.2-0.4-1.9-0.5c-0.7,0-1.3,0.2-1.9,0.5l-0.3,0.2l0,0.4c0.3,2,2,3.5,4.1,3.5l0,0c0.5,0,0.9-0.1,1.4-0.2
		c0,1.5,0.2,2.9,0.6,4.3c0,0.1,0,0.1,0.1,0.2l0,0c0.1,0.1,0.2,0.2,0.4,0.2c0.1,0,0.1,0,0.2,0c0.3-0.1,0.4-0.4,0.3-0.6
		c0,0,0-0.1,0-0.1l0,0c0-0.1,0-0.1,0-0.2c0,0,0,0,0,0c0,0,0,0,0,0c0,0,0,0,0-0.1s0,0,0,0c0,0,0-0.1,0-0.1v0
		c-0.4-1.8-0.5-3.6-0.3-5.4c0,0,0-0.1,0-0.1c0-0.1,0-0.2,0-0.3c0,0,0-0.1,0-0.1c0-0.1,0-0.2,0-0.3v0c0.1-0.4,0.2-0.8,0.2-1.2
		c0,0,0-0.1,0-0.1c0.1-0.5,0.3-1,0.5-1.5h0l0.1-0.4v0c0.4-0.9,0.9-1.8,1.5-2.5c0.5,0.1,0.9,0.1,1.4,0.2l0,0c1.6,0,3.1-0.6,4.3-1.6
		C20.8,7,21.7,4.9,21.5,2.7z M5,8.4C3.6,6.5,3.2,4,3.8,1.7c2.4,0.1,4.7,1.2,6.1,3.2c1.4,1.9,1.8,4.2,1.3,6.5
		C10.6,10,9.8,8.7,8.8,7.6C8.4,7,7.9,6.4,7.4,5.7C7.2,5.4,6.9,5.4,6.6,5.6C6.4,5.7,6.4,6.1,6.5,6.3c0.5,0.7,1,1.4,1.5,2
		c0.9,1,1.6,2.1,2.2,3.3C8.1,11.2,6.3,10.1,5,8.4z M8.4,17.7L8.4,17.7c-0.5,0-1-0.1-1.4-0.3c-0.8-0.4-1.3-1.1-1.6-1.9
		c0.3-0.1,0.7-0.2,1.1-0.2c0.5,0,1,0.1,1.4,0.3c0.8,0.4,1.3,1.1,1.6,1.9C9.2,17.6,8.8,17.7,8.4,17.7z M18.5,7.5
		c-1,0.8-2.3,1.3-3.6,1.3c-0.2,0-0.4,0-0.6,0c1-1,2.1-1.9,3.3-2.6c0.2-0.1,0.3-0.5,0.2-0.7c-0.1-0.2-0.5-0.3-0.7-0.2
		C15.9,6,14.9,6.8,14,7.7c0.4-2.7,2.8-4.6,5.5-4.6c0.3,0,0.7,0,1,0.1C20.5,4.9,19.8,6.5,18.5,7.5L18.5,7.5z"/>
</g>
</svg>
