// Jest Snapshot v1, https://goo.gl/fbAQLP

exports[`<Article /> matches the old snapshot showing nothing changed 1`] = `
<p
  className="MuiTypography-root-1 MuiTypography-body1-10"
  style={
    Object {
      "margin": "1rem",
    }
  }
>
  <a
    href="https://www.healthquality.va.gov/guidelines/Pain/cot/"
    target="_blank"
  >
    VA/DoD Opioid CPGs
  </a>
</p>
`;
