// Jest Snapshot v1, https://goo.gl/fbAQLP

exports[`<InfoPage /> matches the old snapshot showing nothing changed 1`] = `
<div
  style={
    Object {
      "display": "grid",
      "gridTemplateRows": "auto 1fr",
      "minHeight": "70vh",
    }
  }
>
  <nav
    className="MuiList-root-7 MuiList-padding-8"
  >
    <img
      alt="NCR logo"
      src="ncr_logo.png"
      style={
        Object {
          "height": "auto",
          "maxWidth": "100%",
        }
      }
    />
    <a
      className="MuiButtonBase-root-22 MuiListItem-root-11 MuiListItem-default-14 MuiListItem-gutters-18 MuiListItem-button-19"
      href="/info/patients"
      onBlur={[Function]}
      onClick={[Function]}
      onFocus={[Function]}
      onKeyDown={[Function]}
      onKeyUp={[Function]}
      onMouseDown={[Function]}
      onMouseLeave={[Function]}
      onMouseUp={[Function]}
      onTouchEnd={[Function]}
      onTouchMove={[Function]}
      onTouchStart={[Function]}
      role="button"
      style={
        Object {
          "background": "#57ba93",
        }
      }
      tabIndex="0"
    >
      <svg
        aria-hidden="true"
        className="MuiSvgIcon-root-26 MuiListItemIcon-root-25"
        color={undefined}
        focusable="false"
        role="presentation"
        viewBox="0 0 24 24"
      >
        <path
          d="M0 0h24v24H0z"
          fill="none"
        />
        <path
          d="M12 21.35l-1.45-1.32C5.4 15.36 2 12.28 2 8.5 2 5.42 4.42 3 7.5 3c1.74 0 3.41.81 4.5 2.09C13.09 3.81 14.76 3 16.5 3 19.58 3 22 5.42 22 8.5c0 3.78-3.4 6.86-8.55 11.54L12 21.35z"
        />
      </svg>
      <div
        className="MuiListItemText-root-35"
      >
        <span
          className="MuiTypography-root-41 MuiTypography-subheading-48 MuiListItemText-primary-38"
        >
          Patient Resources
        </span>
      </div>
      <svg
        aria-hidden="true"
        className="MuiSvgIcon-root-26 MuiListItemIcon-root-25"
        color={undefined}
        focusable="false"
        role="presentation"
        viewBox="0 0 24 24"
      >
        <path
          d="M10 6L8.59 7.41 13.17 12l-4.58 4.59L10 18l6-6z"
        />
        <path
          d="M0 0h24v24H0z"
          fill="none"
        />
      </svg>
      <span
        className="MuiTouchRipple-root-67"
      />
    </a>
    <a
      className="MuiButtonBase-root-22 MuiListItem-root-11 MuiListItem-default-14 MuiListItem-gutters-18 MuiListItem-button-19"
      href="/info/cpgs"
      onBlur={[Function]}
      onClick={[Function]}
      onFocus={[Function]}
      onKeyDown={[Function]}
      onKeyUp={[Function]}
      onMouseDown={[Function]}
      onMouseLeave={[Function]}
      onMouseUp={[Function]}
      onTouchEnd={[Function]}
      onTouchMove={[Function]}
      onTouchStart={[Function]}
      role="button"
      style={
        Object {
          "background": "#4bbc00",
        }
      }
      tabIndex="0"
    >
      <svg
        aria-hidden="true"
        className="MuiSvgIcon-root-26 MuiListItemIcon-root-25"
        color={undefined}
        focusable="false"
        role="presentation"
        viewBox="0 0 24 24"
      >
        <path
          d="M0 0h24v24H0z"
          fill="none"
        />
        <path
          d="M9 16.17L4.83 12l-1.42 1.41L9 19 21 7l-1.41-1.41z"
        />
      </svg>
      <div
        className="MuiListItemText-root-35"
      >
        <span
          className="MuiTypography-root-41 MuiTypography-subheading-48 MuiListItemText-primary-38"
        >
          Clinical Practice Guidelines
        </span>
      </div>
      <svg
        aria-hidden="true"
        className="MuiSvgIcon-root-26 MuiListItemIcon-root-25"
        color={undefined}
        focusable="false"
        role="presentation"
        viewBox="0 0 24 24"
      >
        <path
          d="M10 6L8.59 7.41 13.17 12l-4.58 4.59L10 18l6-6z"
        />
        <path
          d="M0 0h24v24H0z"
          fill="none"
        />
      </svg>
      <span
        className="MuiTouchRipple-root-67"
      />
    </a>
    <a
      className="MuiButtonBase-root-22 MuiListItem-root-11 MuiListItem-default-14 MuiListItem-gutters-18 MuiListItem-button-19"
      href="/info/providers"
      onBlur={[Function]}
      onClick={[Function]}
      onFocus={[Function]}
      onKeyDown={[Function]}
      onKeyUp={[Function]}
      onMouseDown={[Function]}
      onMouseLeave={[Function]}
      onMouseUp={[Function]}
      onTouchEnd={[Function]}
      onTouchMove={[Function]}
      onTouchStart={[Function]}
      role="button"
      style={
        Object {
          "background": "#4348be",
        }
      }
      tabIndex="0"
    >
      <svg
        aria-hidden="true"
        className="MuiSvgIcon-root-26 MuiListItemIcon-root-25"
        color={undefined}
        focusable="false"
        role="presentation"
        viewBox="0 0 24 24"
      >
        <path
          d="M12 12c2.21 0 4-1.79 4-4s-1.79-4-4-4-4 1.79-4 4 1.79 4 4 4zm0 2c-2.67 0-8 1.34-8 4v2h16v-2c0-2.66-5.33-4-8-4z"
        />
        <path
          d="M0 0h24v24H0z"
          fill="none"
        />
      </svg>
      <div
        className="MuiListItemText-root-35"
      >
        <span
          className="MuiTypography-root-41 MuiTypography-subheading-48 MuiListItemText-primary-38"
        >
          Providers Resources
        </span>
      </div>
      <svg
        aria-hidden="true"
        className="MuiSvgIcon-root-26 MuiListItemIcon-root-25"
        color={undefined}
        focusable="false"
        role="presentation"
        viewBox="0 0 24 24"
      >
        <path
          d="M10 6L8.59 7.41 13.17 12l-4.58 4.59L10 18l6-6z"
        />
        <path
          d="M0 0h24v24H0z"
          fill="none"
        />
      </svg>
      <span
        className="MuiTouchRipple-root-67"
      />
    </a>
  </nav>
  <div
    style={
      Object {
        "alignItems": "center",
        "display": "flex",
        "justifyContent": "center",
      }
    }
  >
    <img
      alt="NCR logo"
      src="quote.png"
      style={
        Object {
          "height": "auto",
          "maxWidth": "100%",
        }
      }
    />
  </div>
</div>
`;
